%YAML 1.1
%TAG !u! tag:unity3d.com,2011:
--- !u!114 &11400000
MonoBehaviour:
  m_ObjectHideFlags: 0
  m_CorrespondingSourceObject: {fileID: 0}
  m_PrefabInstance: {fileID: 0}
  m_PrefabAsset: {fileID: 0}
  m_GameObject: {fileID: 0}
  m_Enabled: 1
  m_EditorHideFlags: 0
  m_Script: {fileID: 11500000, guid: 2ae9eb4becc98494aa0702e721c14105, type: 3}
  m_Name: Alignment
  m_EditorClassIdentifier: 
  filter: {fileID: 11400000, guid: 56d4bd6c1c25e6b41b5984a61ee01609, type: 2}
