%YAML 1.1
%TAG !u! tag:unity3d.com,2011:
--- !u!1001 &9154229014130351175
PrefabInstance:
  m_ObjectHideFlags: 0
  serializedVersion: 2
  m_Modification:
    m_TransformParent: {fileID: 0}
    m_Modifications:
    - target: {fileID: 8759822574894440850, guid: 78d7876fb13d03142952bf67ec46456f,
        type: 3}
      propertyPath: m_Name
      value: BoidAgent Variant White
      objectReference: {fileID: 0}
    - target: {fileID: 8759822574894440849, guid: 78d7876fb13d03142952bf67ec46456f,
        type: 3}
      propertyPath: m_LocalPosition.x
      value: 0
      objectReference: {fileID: 0}
    - target: {fileID: 8759822574894440849, guid: 78d7876fb13d03142952bf67ec46456f,
        type: 3}
      propertyPath: m_LocalPosition.y
      value: 0
      objectReference: {fileID: 0}
    - target: {fileID: 8759822574894440849, guid: 78d7876fb13d03142952bf67ec46456f,
        type: 3}
      propertyPath: m_LocalPosition.z
      value: 0
      objectReference: {fileID: 0}
    - target: {fileID: 8759822574894440849, guid: 78d7876fb13d03142952bf67ec46456f,
        type: 3}
      propertyPath: m_LocalRotation.x
      value: 0
      objectReference: {fileID: 0}
    - target: {fileID: 8759822574894440849, guid: 78d7876fb13d03142952bf67ec46456f,
        type: 3}
      propertyPath: m_LocalRotation.y
      value: 0
      objectReference: {fileID: 0}
    - target: {fileID: 8759822574894440849, guid: 78d7876fb13d03142952bf67ec46456f,
        type: 3}
      propertyPath: m_LocalRotation.z
      value: 0
      objectReference: {fileID: 0}
    - target: {fileID: 8759822574894440849, guid: 78d7876fb13d03142952bf67ec46456f,
        type: 3}
      propertyPath: m_LocalRotation.w
      value: 1
      objectReference: {fileID: 0}
    - target: {fileID: 8759822574894440849, guid: 78d7876fb13d03142952bf67ec46456f,
        type: 3}
      propertyPath: m_RootOrder
      value: 0
      objectReference: {fileID: 0}
    - target: {fileID: 8759822574894440849, guid: 78d7876fb13d03142952bf67ec46456f,
        type: 3}
      propertyPath: m_LocalEulerAnglesHint.x
      value: 0
      objectReference: {fileID: 0}
    - target: {fileID: 8759822574894440849, guid: 78d7876fb13d03142952bf67ec46456f,
        type: 3}
      propertyPath: m_LocalEulerAnglesHint.y
      value: 0
      objectReference: {fileID: 0}
    - target: {fileID: 8759822574894440849, guid: 78d7876fb13d03142952bf67ec46456f,
        type: 3}
      propertyPath: m_LocalEulerAnglesHint.z
      value: 0
      objectReference: {fileID: 0}
    - target: {fileID: 3810696834519809116, guid: 78d7876fb13d03142952bf67ec46456f,
        type: 3}
      propertyPath: m_Materials.Array.data[0]
      value: 
      objectReference: {fileID: 2100000, guid: 7e2a61f15a357774ea6ac9fb17646006, type: 2}
    - target: {fileID: 3810696834519809116, guid: 78d7876fb13d03142952bf67ec46456f,
        type: 3}
      propertyPath: m_DynamicOccludee
      value: 0
      objectReference: {fileID: 0}
    - target: {fileID: 3810696834519809116, guid: 78d7876fb13d03142952bf67ec46456f,
        type: 3}
      propertyPath: m_ReceiveShadows
      value: 0
      objectReference: {fileID: 0}
    - target: {fileID: 3810696834519809116, guid: 78d7876fb13d03142952bf67ec46456f,
        type: 3}
      propertyPath: m_CastShadows
      value: 0
      objectReference: {fileID: 0}
    m_RemovedComponents: []
  m_SourcePrefab: {fileID: 100100000, guid: 78d7876fb13d03142952bf67ec46456f, type: 3}
